Diameter,Height,Target
8.152403940517651,8.767362917084876,Orange
5.848713682594045,9.485919727257219,Lemon
7.68880558002444,7.88541728739366,Orange
6.222256796214834,8.614158633068335,Lemon
7.479097750692506,7.6145105439580005,Orange
7.686257056762416,8.183377384886821,Orange
6.095357869681976,8.41704022707845,Lemon
6.203814816502256,6.406211601282539,Orange
5.63179246776013,8.95087365677619,Lemon
7.166153185956273,7.367285237380085,Orange
5.688075321056836,8.852257223809444,Lemon
6.134974048386188,8.185643388332362,Lemon
5.659221601461193,8.488164083593379,Lemon
7.075483171546022,7.7329131434204745,Orange
7.532045846802303,7.636959280286704,Orange
7.0746790742317565,7.778174415395219,Orange
6.887502110390459,7.090721614040827,Orange
6.132277623185363,9.814752022764285,Lemon
6.944771952800455,7.297106102660469,Orange
7.25169941718189,7.68567994836199,Orange
9.186422659683958,9.466151605411403,Orange
7.243864655320223,7.359498438504625,Orange
5.947190202437562,8.938569237616106,Lemon
7.087039837731565,7.35920437508723,Orange
7.430483760750484,7.779179396591284,Orange
6.233213655340709,8.576802040876546,Lemon
7.550204510956833,7.615762884431079,Orange
7.149451254866564,7.960641381747083,Orange
8.123322997045634,8.220501643169884,Orange
6.783358362237336,7.735290606241618,Orange
8.001611030787055,8.181593242765967,Orange
7.803573402252569,8.500958363386912,Orange
7.8929859127077755,8.185340743986917,Orange
5.956276843173308,8.731786283667548,Lemon
6.030826270198212,8.391023495457901,Lemon
6.162934793743107,8.212734825986384,Lemon
7.4228823210111905,7.474387462536285,Orange
8.725671482191398,11.216945531714197,Lemon
5.9617044718960415,8.483955147325906,Lemon
7.984102469073304,11.346098212931569,Lemon
6.774513579876871,6.955383705082184,Orange
6.195095965530629,10.139072783483822,Lemon
7.283058337038418,7.657510052214799,Orange
6.295889989510966,8.749219929441736,Lemon
5.99852700468806,8.234733042923114,Lemon
6.060359604008239,9.457422177569157,Lemon
6.069488820340591,9.706790441514274,Lemon
6.923233634189629,7.795015853510753,Orange
5.76677772094372,8.335035796530743,Lemon
5.836777078829426,8.457462279954983,Lemon
6.268781892926564,9.193522707710505,Lemon
5.672911203459764,6.203437613712174,Orange
7.159508315797073,7.58458316190913,Orange
7.660403173323751,8.319276965653533,Orange
7.571924985552093,9.743498972748707,Lemon
7.66587892396886,8.315581700941317,Orange
6.940013683372589,7.243963008488997,Orange
7.328894046675402,7.467687382516264,Orange
7.85396321392229,8.457902180959003,Orange
5.907997602167127,6.338231102608278,Orange
7.023495035872167,7.115820251170877,Orange
8.415180846139902,8.428623068838657,Orange
7.543347437116501,8.233740249886814,Orange
7.729158363448196,7.98550217174033,Orange
6.174464352091659,9.52295681669388,Lemon
7.846387748564794,8.269236758899988,Orange
5.438259681711194,8.653037285418494,Lemon
6.06008772832551,8.515525502593613,Lemon
7.082422543432592,7.2960855705192005,Orange
5.748860780842302,6.900074305411732,Orange
7.476489565523854,8.466124172417977,Orange
5.859532182245771,9.227565554424245,Lemon
6.173226982984393,9.354678613218912,Lemon
5.8041710631836105,8.16580979709112,Lemon
9.41810092323913,9.942716816010895,Orange
7.697888868289996,7.943798594525561,Orange
5.5536212263715266,8.249776029964611,Lemon
6.648771129370954,6.708872925903857,Orange
7.46254160214371,11.35617733463457,Lemon
7.623895710907171,8.62830001844578,Orange
5.877755236218096,8.530276498076608,Lemon
7.686774446726968,11.083748072317603,Lemon
6.5544112753780155,6.938282346773985,Orange
7.593730945306071,8.476508547160991,Orange
5.958741394367635,10.026627576358923,Lemon
7.102058555956658,7.521321670739318,Orange
5.818553570479244,8.135501717722189,Lemon
8.600001586127853,8.866619099407023,Orange
6.333182657919666,10.508310460494208,Lemon
8.08006303591109,9.576287361211508,Orange
8.307468445201195,12.779969895206962,Lemon
5.97541215346292,9.63773101045347,Lemon
7.776203238580579,11.218135229923426,Lemon
6.157931982847054,10.032797812754302,Lemon
6.0414023381936035,8.459305346317489,Lemon
5.930614154114444,8.412761630673103,Lemon
8.263882873953536,8.466910859931545,Orange
5.989085296683828,8.122786664252452,Lemon
8.681211239384123,10.993126191156513,Lemon
9.15203630301465,9.847924173960605,Orange
6.1488281201757395,8.315896654489384,Lemon
7.05794050482029,8.284672700408173,Orange
8.319942827874016,8.668467161118572,Orange
6.311913052591577,9.02079410496752,Lemon
7.9816459768994275,11.271680844189515,Lemon
8.332591483958634,11.062315601194134,Lemon
7.352698653172568,7.489503460243521,Orange
5.39431971614816,8.684871366087096,Lemon
7.153796188135974,7.55254105698868,Orange
5.981519174664669,8.717415317802917,Lemon
6.213719410158239,6.3349562844248934,Orange
7.426776355608265,8.382083970276428,Orange
5.830461327603648,8.286901984694099,Lemon
7.458520069684714,7.6348470863642595,Orange
6.069238426899546,9.151627263335824,Lemon
7.808297046320501,8.730721023747552,Orange
6.704448672371049,7.418920368698629,Orange
7.562593814428552,7.650420747684358,Orange
8.12548743010846,8.60558465220253,Orange
5.79061654043979,7.867161278357894,Lemon
7.811576901780448,11.670120135048288,Lemon
6.050173957805793,8.245982747389967,Lemon
7.3051413597406105,7.442973731299515,Orange
6.778991791319138,7.946074218070534,Orange
6.035363978688186,9.53843245937938,Lemon
7.301902331003186,7.618832086244636,Orange
7.870715240748057,7.950301718577437,Orange
7.679774981702012,8.020616818108467,Orange
5.70706682290419,9.247097827614915,Lemon
7.658136953165376,8.395705621119593,Orange
5.833152100008087,8.09654537713216,Lemon
7.9994178256099895,8.31222634807281,Orange
6.474424903352607,9.687397786568832,Lemon
5.980860175863789,8.266430312078265,Lemon
7.470849093614161,7.542921902607723,Orange
7.331982629559667,7.8190620405037725,Orange
6.219589203578917,8.234773132990203,Lemon
5.843542102790633,9.68381705994437,Lemon
5.905147624160314,8.60731619325746,Lemon
5.915022560120299,10.642425899689625,Lemon
6.584023741348658,6.61384529209569,Orange
5.965274004933707,8.434091087783244,Lemon
5.958195613114356,8.693668670086947,Lemon
7.177884509213507,7.877021849973672,Orange
5.82914123039643,7.850253128665431,Lemon
7.774018074017622,10.072406117867098,Lemon
6.378356757363266,6.437682688220921,Orange
8.835451606883527,9.121598146104292,Orange
9.564192987110456,9.583341312478456,Orange
5.936341090630077,9.507076214346219,Lemon
